API,2008,2009,2010,2011,2012,2013,2014,2015,2016,2017,2018,2019,Total
F!org/arguslab/icc_rpc_comprehensive/BarActivity$1!this$0!Lorg/arguslab/icc_rpc_comprehensive/BarActivity;,0,0,0,0,0,0,0,0,0,0,0,0,0
M!android/telephony/TelephonyManager!getDeviceId!()Ljava/lang/String;,0,2,7,13,18,22,27,38,47,26,12,1,213
M!android/content/Context!unbindService!(Landroid/content/ServiceConnection;)V,0,0,3,6,4,12,17,34,41,27,18,6,168
A!data!android:path,0,0,1,3,5,6,7,8,10,6,7,0,53
M!android/os/IBinder!transact!(ILandroid/os/Parcel;Landroid/os/Parcel;I)Z,0,0,1,1,4,2,2,2,4,0,1,0,17
F!org/arguslab/rpc_remoteservice/RemoteService!mBinder!Landroid/os/IBinder;,0,0,0,0,0,0,0,0,0,0,0,0,0
F!org/arguslab/rpc_remoteservice/MainActivity$1!this$0!Lorg/arguslab/rpc_remoteservice/MainActivity;,0,0,0,0,0,0,0,0,0,0,0,0,0
F!org/arguslab/rpc_localservice/MainActivity$1!this$0!Lorg/arguslab/rpc_localservice/MainActivity;,0,0,0,0,0,0,0,0,0,0,0,0,0
F!org/arguslab/rpc_remoteservice/RemoteService$1!this$0!Lorg/arguslab/rpc_remoteservice/RemoteService;,0,0,0,0,0,0,0,0,0,0,0,0,0
F!org/arguslab/rpc_returnsensitive/LocalService!mBinder!Landroid/os/IBinder;,0,0,0,0,0,0,0,0,0,0,0,0,0
F!org/arguslab/icc_rpc_comprehensive/RemoteService!mBinder!Lorg/arguslab/icc_rpc_comprehensive/IRemoteService$Stub;,0,0,0,0,0,0,0,0,0,0,0,0,0
F!org/arguslab/rpc_returnsensitive/MainActivity!mBound!Z,0,0,0,0,0,0,0,0,0,0,0,0,0
F!org/arguslab/rpc_messengerservice/MainActivity$1!this$0!Lorg/arguslab/rpc_messengerservice/MainActivity;,0,0,0,0,0,0,0,0,0,0,0,0,0
F!org/arguslab/rpc_messengerservice/MessengerService$IncomingHandler!this$0!Lorg/arguslab/rpc_messengerservice/MessengerService;,0,0,0,0,0,0,0,0,0,0,0,0,0
M!android/os/Parcel!writeNoException!()V,0,0,0,0,2,0,0,1,0,0,0,0,3
F!org/arguslab/icc_rpc_comprehensive/RemoteService$1!this$0!Lorg/arguslab/icc_rpc_comprehensive/RemoteService;,0,0,0,0,0,0,0,0,0,0,0,0,0
F!org/arguslab/rpc_messengerservice/MainActivity!mConnection!Landroid/content/ServiceConnection;,0,0,0,0,0,0,0,0,0,0,0,0,0
F!org/arguslab/rpc_localservice/LocalService!mBinder!Landroid/os/IBinder;,0,0,0,0,0,0,0,0,0,0,0,0,0
M!android/app/Activity!finish!()V,0,10,34,135,235,429,492,1175,1014,797,571,76,4968
M!android/content/Intent!setType!(Ljava/lang/String;)Landroid/content/Intent;,0,7,55,147,222,303,382,652,718,682,512,73,3753
M!android/app/Activity!startActivityForResult!(Landroid/content/Intent;I)V,0,4,33,103,166,265,345,738,708,593,409,64,3428
M!android/content/Intent!setAction!(Ljava/lang/String;)Landroid/content/Intent;,0,3,28,75,118,161,251,443,603,536,384,60,2662
M!android/os/Parcel!obtain!()Landroid/os/Parcel;,0,0,0,5,5,6,5,14,10,5,8,2,60
M!android/content/Intent!addCategory!(Ljava/lang/String;)Landroid/content/Intent;,0,1,16,35,55,88,131,170,193,163,125,9,986
M!android/content/Intent!setClass!(Landroid/content/Context;Ljava/lang/Class;)Landroid/content/Intent;,0,3,13,24,32,36,31,56,47,47,24,2,315
M!android/app/IntentService!<init>!(Ljava/lang/String;)V,0,0,11,35,45,89,125,289,274,179,110,9,1166
M!android/content/Context!registerReceiver!(Landroid/content/BroadcastReceiver;Landroid/content/IntentFilter;)Landroid/content/Intent;,1,2,30,67,113,172,208,361,406,306,252,40,1958
M!android/content/Context!startService!(Landroid/content/Intent;)Landroid/content/ComponentName;,0,4,3,31,32,65,104,204,271,191,157,20,1082
F!org/arguslab/rpc_remoteservice/MainActivity!mIRemoteService!Lorg/arguslab/rpc_remoteservice/IRemoteService;,0,0,0,0,0,0,0,0,0,0,0,0,0
M!android/content/Intent!setDataAndType!(Landroid/net/Uri;Ljava/lang/String;)Landroid/content/Intent;,0,4,15,61,90,88,112,181,159,181,113,24,1028
F!org/arguslab/rpc_localservice/MainActivity!mConnection!Landroid/content/ServiceConnection;,0,0,0,0,0,0,0,0,0,0,0,0,0
M!android/content/Context!sendBroadcast!(Landroid/content/Intent;)V,0,2,7,15,26,55,75,163,193,161,133,27,857
M!android/content/Context!bindService!(Landroid/content/Intent;Landroid/content/ServiceConnection;I)Z,0,0,6,14,12,29,30,74,82,52,40,8,347
M!android/os/Parcel!writeString!(Ljava/lang/String;)V,0,0,2,13,17,25,39,71,93,81,75,11,427
M!android/os/Messenger!<init>!(Landroid/os/IBinder;)V,0,1,5,16,23,21,35,73,64,52,53,3,346
F!org/arguslab/rpc_localservice/LocalService$LocalBinder!this$0!Lorg/arguslab/rpc_localservice/LocalService;,0,0,0,0,0,0,0,0,0,0,0,0,0
M!android/os/Message!obtain!(Landroid/os/Handler;ILjava/lang/Object;)Landroid/os/Message;,0,2,8,18,15,33,21,48,38,32,26,3,244
M!java/util/Collection!size!()I,0,2,3,10,16,20,25,43,39,44,35,3,240
A!application!android:allowBackup,0,1,4,4,26,301,540,1186,1144,888,594,87,4775
F!org/arguslab/icc_rpc_comprehensive/IRemoteService$Stub$Proxy!mRemote!Landroid/os/IBinder;,0,0,0,0,0,0,0,0,0,0,0,0,0
F!org/arguslab/rpc_messengerservice/MessengerService!mMessenger!Landroid/os/Messenger;,0,0,0,0,0,0,0,0,0,0,0,0,0
F!org/arguslab/rpc_messengerservice/MainActivity!mBound!Z,0,0,0,0,0,0,0,0,0,0,0,0,0
F!org/arguslab/icc_rpc_comprehensive/RemoteService!imei!Ljava/lang/String;,0,0,0,0,0,0,0,0,0,0,0,0,0
M!android/content/Context!getApplicationContext!()Landroid/content/Context;,0,3,52,147,269,471,677,1582,1759,1554,1111,139,7764
M!android/content/Intent!setData!(Landroid/net/Uri;)Landroid/content/Intent;,0,3,23,82,110,146,176,298,329,335,264,39,1805
M!android/content/Context!getSystemService!(Ljava/lang/String;)Ljava/lang/Object;,0,26,136,407,689,937,1212,2535,2593,2091,1425,179,12230
F!org/arguslab/rpc_returnsensitive/MainActivity$1!this$0!Lorg/arguslab/rpc_returnsensitive/MainActivity;,0,0,0,0,0,0,0,0,0,0,0,0,0
F!org/arguslab/icc_rpc_comprehensive/BarActivity!mConnections!Landroid/content/ServiceConnection;,0,0,0,0,0,0,0,0,0,0,0,0,0
M!android/os/Handler!<init>!()V,0,21,144,429,784,1467,2026,4200,4050,3293,2596,383,19393
F!org/arguslab/rpc_returnsensitive/MainActivity!mConnection!Landroid/content/ServiceConnection;,0,0,0,0,0,0,0,0,0,0,0,0,0
M!android/os/Binder!attachInterface!(Landroid/os/IInterface;Ljava/lang/String;)V,0,0,1,0,2,0,0,0,0,2,0,0,5
M!android/app/Activity!setResult!(ILandroid/content/Intent;)V,0,1,4,24,33,55,58,174,159,129,90,12,739
E!uses-permission,2,24,123,368,557,797,976,1892,1912,1556,1063,155,9425
M!android/net/Uri!parse!(Ljava/lang/String;)Landroid/net/Uri;,0,23,128,344,525,603,682,1374,1412,1359,1009,157,7616
F!org/arguslab/rpc_remoteservice/MainActivity!mBound!Z,0,0,0,0,0,0,0,0,0,0,0,0,0
F!org/arguslab/rpc_localservice/MainActivity!mService!Lorg/arguslab/rpc_localservice/LocalService;,0,0,0,0,0,0,1,0,5,2,2,0,10
F!org/arguslab/rpc_remoteservice/IRemoteService$Stub$Proxy!mRemote!Landroid/os/IBinder;,0,0,0,0,0,0,0,0,0,0,0,0,0
A!uses-permission!android:name=android.permission.READ_PHONE_STATE,0,1,7,23,28,51,65,136,148,108,82,13,662
E!category,1,14,77,273,430,646,999,1989,1952,1536,1125,166,9208
M!android/os/Parcel!readException!()V,0,0,5,13,22,28,34,67,80,85,58,7,399
A!application!android:debuggable,0,2,16,34,34,33,40,39,33,26,18,3,278
A!intent-filter!category!,0,9,50,190,317,488,782,1498,1389,1059,743,111,6636
M!android/content/Intent!getStringExtra!(Ljava/lang/String;)Ljava/lang/String;,0,2,17,61,110,190,329,767,747,668,592,80,3563
A!data!android:scheme,0,3,17,43,60,65,93,162,154,148,124,13,882
M!android/os/Messenger!<init>!(Landroid/os/Handler;)V,0,1,5,16,23,21,35,73,64,52,53,3,346
M!android/app/Activity!<init>!()V,1,97,549,1655,2602,4011,5006,10115,8882,7048,4952,697,45615
M!android/content/Context!startActivity!(Landroid/content/Intent;)V,0,8,22,93,176,316,445,1313,1392,1337,947,120,6169
M!android/os/Messenger!getBinder!()Landroid/os/IBinder;,0,0,1,2,1,2,1,4,3,2,1,0,17
A!data!android:pathPrefix,0,1,3,3,9,10,23,32,31,30,22,2,166
M!android/os/Messenger!send!(Landroid/os/Message;)V,0,0,3,11,9,8,15,29,22,15,14,1,127
M!java/util/Collection!remove!(Ljava/lang/Object;)Z,0,0,2,4,6,7,12,22,21,22,12,2,110
M!android/os/Parcel!readString!()Ljava/lang/String;,0,0,2,12,17,25,39,68,90,77,78,11,419
M!android/content/Context!checkSelfPermission!(Ljava/lang/String;)I,0,4,2,4,0,1,3,29,323,350,294,30,1040
F!org/arguslab/rpc_remoteservice/MainActivity!mConnection!Landroid/content/ServiceConnection;,0,0,0,0,0,0,0,0,0,0,0,0,0
M!android/os/Binder!<init>!()V,0,3,19,35,40,70,81,153,212,199,142,19,973
A!intent-filter!action!,0,16,64,265,424,591,905,1682,1577,1235,868,124,7751
M!android/app/Activity!requestPermissions!([Ljava/lang/String;I)V,0,2,1,7,1,2,2,43,234,266,212,27,797
A!service!android:exported,0,0,3,8,21,27,69,163,173,122,117,11,714
M!android/content/BroadcastReceiver!<init>!()V,1,17,76,218,301,406,519,892,989,753,591,93,4856
M!android/os/Parcel!recycle!()V,0,0,0,2,4,3,1,7,4,4,2,1,28
M!android/os/Parcel!writeInterfaceToken!(Ljava/lang/String;)V,0,0,0,0,3,1,0,2,4,2,0,0,12
F!org/arguslab/rpc_returnsensitive/MainActivity!mService!Lorg/arguslab/rpc_returnsensitive/LocalService;,0,0,0,0,0,0,1,0,5,2,2,0,10
F!org/arguslab/rpc_localservice/MainActivity!mBound!Z,0,0,0,0,0,0,0,0,0,0,0,0,0
M!android/os/Parcel!enforceInterface!(Ljava/lang/String;)V,0,0,0,0,3,0,0,2,1,0,0,0,6
F!org/arguslab/rpc_messengerservice/MainActivity!mService!Landroid/os/Messenger;,0,0,0,0,0,0,1,0,5,2,2,0,10
M!android/content/Intent!<init>!(Landroid/content/Context;Ljava/lang/Class;)V,1,68,414,1210,1905,2857,3678,8224,8479,7824,6023,848,41531
M!java/util/Collection!add!(Ljava/lang/Object;)Z,0,1,3,19,23,37,46,76,74,68,56,7,410
M!android/os/IBinder!queryLocalInterface!(Ljava/lang/String;)Landroid/os/IInterface;,0,0,0,0,2,0,0,1,0,0,0,0,3
M!java/util/Collection!clear!()V,0,0,1,1,5,3,6,18,21,20,15,0,90
M!android/content/Intent!<init>!()V,1,68,414,1210,1905,2857,3678,8224,8479,7824,6023,848,41531
M!android/app/Activity!setContentView!(I)V,1,35,233,784,1308,2288,2674,5341,4179,3025,2034,272,22174
M!android/content/Intent!putExtra!(Ljava/lang/String;Ljava/lang/String;)Landroid/content/Intent;,0,20,125,326,541,851,1072,2487,2583,2447,1900,254,12606
F!org/arguslab/rpc_returnsensitive/LocalService$LocalBinder!this$0!Lorg/arguslab/rpc_returnsensitive/LocalService;,0,0,0,0,0,0,0,0,0,0,0,0,0
M!android/content/IntentFilter!<init>!(Ljava/lang/String;)V,1,3,37,88,156,209,254,434,484,390,316,47,2419
M!android/app/Service!<init>!()V,2,18,130,300,418,651,806,1566,1485,1222,897,126,7621
M!android/app/Activity!getIntent!()Landroid/content/Intent;,0,2,21,87,162,296,431,901,790,687,472,63,3912
M!android/content/Intent!<init>!(Ljava/lang/String;)V,1,68,414,1210,1905,2857,3678,8224,8479,7824,6023,848,41531
E!action,3,48,223,727,1155,1958,2769,5655,4673,3500,2487,371,23569