API,2008,2009,2010,2011,2012,2013,2014,2015,2016,2017,2018,2019,Total
F!android/content/pm/ResolveInfo!specificIndex!I,0,0,0,0,0,0,0,0,0,0,0,0,0
M!java/util/Stack!pop!()Ljava/lang/Object;,0,1,6,5,6,8,6,10,16,16,9,3,86
M!android/content/Context!getColorStateList!(I)Landroid/content/res/ColorStateList;,0,0,1,0,0,1,2,5,9,21,11,1,51
M!android/content/ComponentName!hashCode!()I,0,0,0,0,1,1,1,1,3,2,1,0,10
M!android/content/ComponentName!flattenToString!()Ljava/lang/String;,0,0,0,0,0,0,1,1,2,0,0,0,4
F!android/content/pm/ComponentInfo!applicationInfo!Landroid/content/pm/ApplicationInfo;,0,0,0,0,0,0,1,1,1,1,0,0,4
F!android/content/pm/PackageItemInfo!name!Ljava/lang/String;,0,0,0,0,0,0,0,0,0,0,0,0,0
M!android/content/ComponentName!<init>!(Ljava/lang/String;Ljava/lang/String;)V,0,3,20,53,74,113,151,252,258,210,160,19,1313
M!android/location/LocationManager!requestLocationUpdates!(Ljava/lang/String;JFLandroid/location/LocationListener;)V,0,4,35,106,157,181,203,343,340,282,157,14,1822
M!java/lang/StringBuffer!append!(Ljava/lang/String;)Ljava/lang/StringBuffer;,0,4,37,96,128,141,165,440,463,313,172,31,1990
A!uses-permission!android:name=android.permission.READ_PHONE_STATE,0,1,7,23,28,51,65,136,148,108,82,13,662
M!android/os/Handler!removeCallbacks!(Ljava/lang/Runnable;)V,0,2,7,19,22,53,59,109,112,92,74,13,562
M!java/lang/Math!random!()D,0,1,5,25,26,46,48,146,117,97,70,23,604
M!android/content/Context!obtainStyledAttributes!(Landroid/util/AttributeSet;[III)Landroid/content/res/TypedArray;,0,2,10,11,23,22,27,55,50,38,28,4,270
M!java/util/LinkedList!<init>!()V,0,5,11,19,40,51,52,111,88,74,57,7,515
M!android/os/AsyncTask!executeOnExecutor!(Ljava/util/concurrent/Executor;[Ljava/lang/Object;)Landroid/os/AsyncTask;,0,0,1,3,13,41,57,143,80,60,40,5,443
M!android/os/SystemClock!uptimeMillis!()J,0,1,2,12,25,20,28,58,37,31,20,0,234
M!android/os/Parcel!readInt!()I,0,0,5,10,14,15,22,57,54,50,48,3,278
A!application!android:debuggable,0,2,16,34,34,33,40,39,33,26,18,3,278
M!android/content/pm/ResolveInfo!loadLabel!(Landroid/content/pm/PackageManager;)Ljava/lang/CharSequence;,0,0,2,3,3,2,11,14,8,5,3,0,51
M!android/content/SharedPreferences$OnSharedPreferenceChangeListener!onSharedPreferenceChanged!(Landroid/content/SharedPreferences;Ljava/lang/String;)V,0,1,0,3,6,5,11,20,16,16,14,0,92
M!android/os/Parcel!readValue!(Ljava/lang/ClassLoader;)Ljava/lang/Object;,0,0,0,3,1,7,9,18,20,14,18,0,90
M!android/os/Parcel!writeParcelable!(Landroid/os/Parcelable;I)V,0,0,1,2,2,8,8,17,29,23,15,0,105
F!java/lang/Boolean!TRUE!Ljava/lang/Boolean;,0,0,1,1,6,9,7,12,19,16,9,4,84
M!android/os/Handler!<init>!(Landroid/os/Looper;)V,0,21,144,429,784,1467,2026,4200,4050,3293,2596,383,19393
M!android/telephony/TelephonyManager!getDeviceId!()Ljava/lang/String;,0,2,7,13,18,22,27,38,47,26,12,1,213
M!android/content/Intent!setComponent!(Landroid/content/ComponentName;)Landroid/content/Intent;,0,1,9,25,34,45,72,83,61,43,33,3,409
M!android/content/ComponentName!unflattenFromString!(Ljava/lang/String;)Landroid/content/ComponentName;,0,1,1,0,1,2,7,2,1,3,1,0,19
M!java/lang/Runnable!run!()V,0,14,95,263,500,812,1065,2545,2224,1961,1384,187,11050
M!java/lang/Thread!<init>!()V,0,25,149,407,726,1112,1449,2931,2527,1988,1551,249,13114
E!category,1,14,77,273,430,646,999,1989,1952,1536,1125,166,9208
M!android/os/AsyncTask!execute!([Ljava/lang/Object;)Landroid/os/AsyncTask;,0,9,47,117,343,732,1002,2703,2367,1574,1008,115,10017
M!android/content/Context!getString!(I)Ljava/lang/String;,0,7,51,149,269,456,637,1874,2160,1814,1236,151,8804
A!intent-filter!action!,0,16,64,265,424,591,905,1682,1577,1235,868,124,7751
M!java/util/concurrent/Executor!execute!(Ljava/lang/Runnable;)V,0,0,1,2,14,11,13,28,20,16,22,2,129
A!intent-filter!category!,0,9,50,190,317,488,782,1498,1389,1059,743,111,6636
M!android/database/DataSetObservable!notifyChanged!()V,0,0,0,0,1,1,4,8,3,2,2,0,21
M!android/content/SharedPreferences!getString!(Ljava/lang/String;Ljava/lang/String;)Ljava/lang/String;,0,3,15,69,139,191,246,719,805,672,435,53,3347
M!android/content/ContextWrapper!getBaseContext!()Landroid/content/Context;,0,0,1,1,2,1,4,16,9,6,5,0,45
M!android/content/Context!getApplicationInfo!()Landroid/content/pm/ApplicationInfo;,0,0,2,7,5,14,15,26,33,23,26,6,157
M!java/lang/AutoCloseable!close!()V,0,0,0,1,0,1,1,2,0,7,0,0,12
M!android/location/LocationListener!onProviderEnabled!(Ljava/lang/String;)V,0,5,17,67,111,126,147,257,229,192,125,12,1288
M!java/lang/String!toUpperCase!(Ljava/util/Locale;)Ljava/lang/String;,0,0,7,22,39,53,56,135,119,84,89,14,618
M!android/content/pm/ResolveInfo!toString!()Ljava/lang/String;,0,0,2,2,10,8,16,21,18,13,8,2,100
M!android/content/Intent!addFlags!(I)Landroid/content/Intent;,0,4,13,61,117,159,217,468,443,449,356,58,2345
M!android/content/Context!openFileOutput!(Ljava/lang/String;I)Ljava/io/FileOutputStream;,0,1,23,42,55,76,66,182,127,100,55,16,743
M!android/content/Context!getMainLooper!()Landroid/os/Looper;,0,0,1,0,5,12,19,60,52,48,36,5,238
M!android/content/Context!getPackageManager!()Landroid/content/pm/PackageManager;,0,1,11,32,29,69,109,142,207,133,113,10,856
M!android/app/Activity!onCreate!(Landroid/os/Bundle;)V,1,46,293,940,1580,2657,3217,6341,5137,3723,2527,345,26807
F!android/content/pm/ApplicationInfo!targetSdkVersion!I,0,0,0,0,0,0,0,0,0,0,0,0,0
F!android/content/pm/PackageItemInfo!packageName!Ljava/lang/String;,0,0,0,0,0,0,1,1,0,1,0,0,3
M!android/app/Activity!findViewById!(I)Landroid/view/View;,1,25,171,611,1057,1994,2500,5230,4334,3180,2140,289,21532
F!android/content/pm/ResolveInfo!activityInfo!Landroid/content/pm/ActivityInfo;,0,1,11,12,29,33,44,64,45,29,23,4,295
M!android/os/Parcel!writeValue!(Ljava/lang/Object;)V,0,0,1,1,2,8,9,17,23,22,22,1,106
M!android/content/SharedPreferences$Editor!putString!(Ljava/lang/String;Ljava/lang/String;)Landroid/content/SharedPreferences$Editor;,0,2,10,31,97,98,118,367,449,413,271,33,1889
M!android/content/Context!getSharedPreferences!(Ljava/lang/String;I)Landroid/content/SharedPreferences;,0,1,10,28,76,87,151,517,611,537,348,50,2416
M!android/os/Handler!postDelayed!(Ljava/lang/Runnable;J)Z,0,2,26,68,72,171,256,611,623,590,473,68,2960
M!android/content/Context!openFileInput!(Ljava/lang/String;)Ljava/io/FileInputStream;,0,1,15,11,21,38,31,92,59,44,21,5,338
M!android/content/Context!obtainStyledAttributes!(Landroid/util/AttributeSet;[I)Landroid/content/res/TypedArray;,0,2,10,11,23,22,27,55,50,38,28,4,270
M!java/util/Stack!<init>!()V,0,3,37,88,108,145,169,348,374,359,273,34,1938
M!android/content/Intent!<init>!(Landroid/content/Intent;)V,1,68,414,1210,1905,2857,3678,8224,8479,7824,6023,848,41531
M!android/content/pm/PackageManager!queryIntentActivityOptions!(Landroid/content/ComponentName;[Landroid/content/Intent;Landroid/content/Intent;I)Ljava/util/List;,0,0,1,0,1,0,0,0,0,0,0,0,2
M!android/os/AsyncTask!<init>!()V,1,19,100,277,615,1167,1535,3832,3433,2344,1535,195,15053
M!android/content/Context!obtainStyledAttributes!(I[I)Landroid/content/res/TypedArray;,0,2,10,11,23,22,27,55,50,38,28,4,270
A!uses-permission!android:name=android.permission.ACCESS_COARSE_LOCATION,0,2,10,31,45,118,129,273,274,213,169,28,1292
F!android/os/Build$VERSION!SDK_INT!I,0,6,49,77,114,272,325,632,884,1008,873,126,4366
A!application!android:allowBackup,0,1,4,4,26,301,540,1186,1144,888,594,87,4775
M!android/location/LocationListener!onProviderDisabled!(Ljava/lang/String;)V,0,5,17,67,110,126,146,258,230,194,125,12,1290
M!android/content/SharedPreferences!registerOnSharedPreferenceChangeListener!(Landroid/content/SharedPreferences$OnSharedPreferenceChangeListener;)V,0,2,1,8,7,6,15,22,16,14,12,0,103
M!android/telephony/TelephonyManager!getSimSerialNumber!()Ljava/lang/String;,0,1,2,0,5,12,3,7,9,7,3,0,49
M!android/content/SharedPreferences$Editor!apply!()V,0,1,1,4,7,5,20,136,242,252,228,35,931
M!android/content/Context!getSystemService!(Ljava/lang/String;)Ljava/lang/Object;,0,26,136,407,689,937,1212,2535,2593,2091,1425,179,12230
F!android/os/AsyncTask!THREAD_POOL_EXECUTOR!Ljava/util/concurrent/Executor;,0,0,2,1,4,21,24,55,39,36,23,2,207
E!uses-permission,2,24,123,368,557,797,976,1892,1912,1556,1063,155,9425
M!android/content/Context!startActivity!(Landroid/content/Intent;)V,0,8,22,93,176,316,445,1313,1392,1337,947,120,6169
M!java/lang/String!format!(Ljava/lang/String;[Ljava/lang/Object;)Ljava/lang/String;,1,17,123,362,556,873,1100,2287,2304,1987,1582,223,11415
M!android/os/Handler!post!(Ljava/lang/Runnable;)Z,0,7,33,73,116,211,275,602,513,409,324,49,2612
M!android/content/ComponentName!equals!(Ljava/lang/Object;)Z,0,1,3,4,17,24,41,66,65,44,30,2,297
M!android/os/Parcel!readParcelable!(Ljava/lang/ClassLoader;)Landroid/os/Parcelable;,0,0,1,3,2,10,10,22,25,20,17,0,110
M!java/util/Stack!peek!()Ljava/lang/Object;,0,1,1,1,2,2,1,2,9,7,5,0,31
M!android/content/Context!getDrawable!(I)Landroid/graphics/drawable/Drawable;,0,3,11,21,39,59,86,199,182,178,143,22,943
M!android/content/Context!getPackageName!()Ljava/lang/String;,0,1,15,41,49,88,114,266,239,239,204,22,1278
M!android/database/DataSetObserver!<init>!()V,0,0,2,4,7,8,8,14,13,12,8,1,77
M!android/app/Activity!setContentView!(I)V,1,35,233,784,1308,2288,2674,5341,4179,3025,2034,272,22174
M!android/content/pm/ResolveInfo!loadIcon!(Landroid/content/pm/PackageManager;)Landroid/graphics/drawable/Drawable;,0,0,0,0,3,1,5,12,4,4,3,0,32
M!android/os/Parcel!writeInt!(I)V,0,0,5,10,15,17,21,53,56,50,48,2,277
M!java/lang/StringBuffer!<init>!()V,1,4,39,109,140,163,190,498,503,344,190,35,2216
M!android/content/ContextWrapper!<init>!(Landroid/content/Context;)V,0,1,5,24,37,50,77,180,148,101,107,20,750
M!android/content/Context!getText!(I)Ljava/lang/CharSequence;,0,2,22,47,100,197,256,881,983,885,597,86,4056
M!java/util/Stack!push!(Ljava/lang/Object;)Ljava/lang/Object;,0,1,7,7,8,7,4,10,15,22,17,2,100
M!android/location/LocationListener!onStatusChanged!(Ljava/lang/String;ILandroid/os/Bundle;)V,0,4,17,66,108,127,149,256,230,192,126,11,1286
M!android/content/Intent!<init>!(Ljava/lang/String;)V,1,68,414,1210,1905,2857,3678,8224,8479,7824,6023,848,41531
M!java/util/ArrayList!toArray!(Ljava/lang/Object;[Ljava/lang/Object;)[,0,1,11,33,44,65,78,172,177,147,117,17,862
M!android/app/Activity!<init>!()V,1,97,549,1655,2602,4011,5006,10115,8882,7048,4952,697,45615
M!java/util/concurrent/Executors!newCachedThreadPool!()Ljava/util/concurrent/ExecutorService;,0,0,1,0,1,2,9,6,9,4,4,0,36
E!action,3,48,223,727,1155,1958,2769,5655,4673,3500,2487,371,23569
F!android/content/res/Configuration!locale!Ljava/util/Locale;,0,0,2,7,15,15,17,28,41,44,33,3,205
M!android/content/SharedPreferences!edit!()Landroid/content/SharedPreferences$Editor;,0,3,30,64,174,196,289,809,862,782,522,62,3793
M!android/location/LocationListener!onLocationChanged!(Landroid/location/Location;)V,0,4,28,79,133,159,184,394,367,341,180,21,1890